a 1 d0
a 1 d0
a 1 d0
a 1 d0
a 1 d0
a 1 d1
a 1 d1
a 1 d1
a 1 d3
a 1 d3
a 1 d4
a 1 d5
a 1 d5
a 1 d5
a 1 d6
a 1 d6
a 1 d6
a 1 d8
a 1 d8
a 1 d8
a 1 d8
a 1 d8
a 1 d8
a 1 d9
a 1 d9
a 1 d9
a 1 d9
a 1 d9
a 1 d10
a 1 d10
a 1 d11
a 1 d11
a 1 d11
a 1 d11
a 1 d11
a 1 d11
